Project1
…
  return(tibble_data)
}
#testing function
test <- GetTibble(url_info = url_info)

Warning: The `x` argument of `as_tibble.matrix()` must have unique column names if
`.name_repair` is omitted as of tibble 2.0.0.
ℹ Using compatibility `.name_repair`.

#display 
test

# A tibble: 44,079 × 4
   SEX   PWGTP MAR   SCHL 
   <chr> <chr> <chr> <chr>
 1 2     6     5     24   
 2 2     23    2     24   
 3 1     23    3     24   
 4 1     80    5     24   
 5 1     16    1     24   
 6 1     107   3     24   
 7 2     10    5     24   
 8 1     22    1     24   
 9 2     127   5     24   
10 2     46    5     24   
# ℹ 44,069 more rows
…
[1] "https://api.census.gov/data/2021/acs/acs1/pums?get=AGEP,SEX"
[1] "API URL: https://api.census.gov/data/2021/acs/acs1/pums?get=AGEP,SEX&for=public%20use%20microdata%20area:*&in=state:13"

#display 
test3

# A tibble: 97,104 × 4
    AGEP SEX   state `public use microdata area`
   <dbl> <fct> <chr> <chr>                      
 1    19 2     13    00900                      
 2    92 2     13    01900                      
 3    22 1     13    00700                      
 4    39 1     13    00500                      
 5    62 1     13    02003                      
 6    72 1     13    03600                      
 7    19 2     13    03001                      
 8    22 1     13    01100                      
 9    30 1     13    00600                      
10    19 1     13    04600                      
# ℹ 97,094 more rows
…
[1] "https://api.census.gov/data/2022/acs/acs1/pums?get=AGEP,PWGTP,SEX"
[1] "API URL: https://api.census.gov/data/2022/acs/acs1/pums?get=AGEP,PWGTP,SEX"
[1] "https://api.census.gov/data/2021/acs/acs1/pums?get=AGEP,PWGTP,SEX"
[1] "API URL: https://api.census.gov/data/2021/acs/acs1/pums?get=AGEP,PWGTP,SEX"

#display 
multiquery_test

# A tibble: 6,625,977 × 4
    AGEP PWGTP SEX    year
   <dbl> <dbl> <fct> <dbl>
 1    17     3 2      2022
 2    73    42 1      2022
 3    22    11 1      2022
 4    82    32 2      2022
 5    19    31 2      2022
 6    88    32 1      2022
 7    80    45 1      2022
 8    33    37 1      2022
 9    44    29 1      2022
10    36    55 1      2022
# ℹ 6,625,967 more rows
…
